[
    {
      "model": "api.stores",
      "pk": 1,
      "fields": {
        "store_name": "Sloane sq",
        "total_footfall": 5000,
        "new_footfall": 4000,
        "returning_footfall": 1000,
        "total_time_spent": 0.25,
        "total_departments_visited": 5,
        "total_number_of_department": 7,
        "average_department_visit_time": 0.002,
        "bounce_rate": 0
      }
    },
    {
      "model": "api.stores",
      "pk": 2,
      "fields": {
        "store_name": "Oxford st",
        "total_footfall": 5000,
        "new_footfall": 4000,
        "returning_footfall": 1000,
        "total_time_spent": 0.25,
        "total_departments_visited": 5,
        "total_number_of_department": 7,
        "average_department_visit_time": 0.002,
        "bounce_rate": 0
      }
    },
    {
        "model": "api.stores",
        "pk": 3,
        "fields": {
          "store_name": "Westfield",
          "total_footfall": 5000,
          "new_footfall": 4000,
          "returning_footfall": 1000,
          "total_time_spent": 0.25,
          "total_departments_visited": 5,
          "total_number_of_department": 7,
          "average_department_visit_time": 0.002,
          "bounce_rate": 0
        }
      },
      {
        "model": "api.stores",
        "pk": 4,
        "fields": {
          "store_name": "Stratford",
          "total_footfall": 5000,
          "new_footfall": 4000,
          "returning_footfall": 1000,
          "total_time_spent": 0.25,
          "total_departments_visited": 5,
          "total_number_of_department": 7,
          "average_department_visit_time": 0.002,
          "bounce_rate": 0
        }
      }
]
  